^C:\DOCUMENTS AND SETTINGS\FRANCOPH\MY DOCUMENTS\VISUAL STUDIO 2010\PROJECTS\COMPARE\COMPARE\DEBUG\COMPARE.EXE.EMBED.MANIFEST.RES|C:\DOCUMENTS AND SETTINGS\FRANCOPH\MY DOCUMENTS\VISUAL STUDIO 2010\PROJECTS\COMPARE\COMPARE\DEBUG\COMPARE.OBJ|C:\DOCUMENTS AND SETTINGS\FRANCOPH\MY DOCUMENTS\VISUAL STUDIO 2010\PROJECTS\COMPARE\COMPARE\DEBUG\STDAFX.OBJ
C:\PROGRAM FILES\MICROSOFT SDKS\WINDOWS\V7.0A\LIB\KERNEL32.LIB
C:\PROGRAM FILES\MICROSOFT SDKS\WINDOWS\V7.0A\LIB\USER32.LIB
C:\PROGRAM FILES\MICROSOFT SDKS\WINDOWS\V7.0A\LIB\GDI32.LIB
C:\PROGRAM FILES\MICROSOFT SDKS\WINDOWS\V7.0A\LIB\WINSPOOL.LIB
C:\PROGRAM FILES\MICROSOFT SDKS\WINDOWS\V7.0A\LIB\COMDLG32.LIB
C:\PROGRAM FILES\MICROSOFT SDKS\WINDOWS\V7.0A\LIB\ADVAPI32.LIB
C:\PROGRAM FILES\MICROSOFT SDKS\WINDOWS\V7.0A\LIB\SHELL32.LIB
C:\PROGRAM FILES\MICROSOFT SDKS\WINDOWS\V7.0A\LIB\OLE32.LIB
C:\PROGRAM FILES\MICROSOFT SDKS\WINDOWS\V7.0A\LIB\OLEAUT32.LIB
C:\PROGRAM FILES\MICROSOFT SDKS\WINDOWS\V7.0A\LIB\UUID.LIB
C:\PROGRAM FILES\MICROSOFT SDKS\WINDOWS\V7.0A\LIB\ODBC32.LIB
C:\PROGRAM FILES\MICROSOFT SDKS\WINDOWS\V7.0A\LIB\ODBCCP32.LIB
C:\DOCUMENTS AND SETTINGS\FRANCOPH\MY DOCUMENTS\VISUAL STUDIO 2010\PROJECTS\COMPARE\COMPARE\DEBUG\COMPARE.EXE.EMBED.MANIFEST.RES
C:\DOCUMENTS AND SETTINGS\FRANCOPH\MY DOCUMENTS\VISUAL STUDIO 2010\PROJECTS\COMPARE\COMPARE\DEBUG\COMPARE.OBJ
C:\DOCUMENTS AND SETTINGS\FRANCOPH\MY DOCUMENTS\VISUAL STUDIO 2010\PROJECTS\COMPARE\COMPARE\DEBUG\STDAFX.OBJ
C:\DOCUMENTS AND SETTINGS\FRANCOPH\MY DOCUMENTS\VISUAL STUDIO 2010\PROJECTS\COMPARE\DEBUG\COMPARE.EXE
C:\DOCUMENTS AND SETTINGS\FRANCOPH\MY DOCUMENTS\VISUAL STUDIO 2010\PROJECTS\COMPARE\DEBUG\COMPARE.PDB
C:\PROGRAM FILES\MICROSOFT VISUAL STUDIO 10.0\VC\LIB\MSVCPRTD.LIB
C:\PROGRAM FILES\MICROSOFT VISUAL STUDIO 10.0\VC\LIB\MSVCRTD.LIB
C:\PROGRAM FILES\MICROSOFT VISUAL STUDIO 10.0\VC\LIB\OLDNAMES.LIB
C:\PROGRAM FILES\MICROSOFT VISUAL STUDIO 10.0\VC\BIN\LINK.EXE
C:\WINDOWS\SYSTEM32\RSAENH.DLL
C:\WINDOWS\SYSTEM32\CRYPT32.DLL
C:\PROGRAM FILES\MICROSOFT VISUAL STUDIO 10.0\VC\BIN\CVTRES.EXE
^D:\VISUAL STUDIO 2010\PROJECTS\COMPARE\COMPARE\DEBUG\COMPARE.EXE.EMBED.MANIFEST.RES|D:\VISUAL STUDIO 2010\PROJECTS\COMPARE\COMPARE\DEBUG\COMPARE.OBJ|D:\VISUAL STUDIO 2010\PROJECTS\COMPARE\COMPARE\DEBUG\STDAFX.OBJ
C:\PROGRAM FILES\MICROSOFT SDKS\WINDOWS\V7.0A\LIB\KERNEL32.LIB
C:\PROGRAM FILES\MICROSOFT SDKS\WINDOWS\V7.0A\LIB\USER32.LIB
C:\PROGRAM FILES\MICROSOFT SDKS\WINDOWS\V7.0A\LIB\GDI32.LIB
C:\PROGRAM FILES\MICROSOFT SDKS\WINDOWS\V7.0A\LIB\WINSPOOL.LIB
C:\PROGRAM FILES\MICROSOFT SDKS\WINDOWS\V7.0A\LIB\COMDLG32.LIB
C:\PROGRAM FILES\MICROSOFT SDKS\WINDOWS\V7.0A\LIB\ADVAPI32.LIB
C:\PROGRAM FILES\MICROSOFT SDKS\WINDOWS\V7.0A\LIB\SHELL32.LIB
C:\PROGRAM FILES\MICROSOFT SDKS\WINDOWS\V7.0A\LIB\OLE32.LIB
C:\PROGRAM FILES\MICROSOFT SDKS\WINDOWS\V7.0A\LIB\OLEAUT32.LIB
C:\PROGRAM FILES\MICROSOFT SDKS\WINDOWS\V7.0A\LIB\UUID.LIB
C:\PROGRAM FILES\MICROSOFT SDKS\WINDOWS\V7.0A\LIB\ODBC32.LIB
C:\PROGRAM FILES\MICROSOFT SDKS\WINDOWS\V7.0A\LIB\ODBCCP32.LIB
D:\VISUAL STUDIO 2010\PROJECTS\COMPARE\COMPARE\DEBUG\COMPARE.EXE.EMBED.MANIFEST.RES
D:\VISUAL STUDIO 2010\PROJECTS\COMPARE\COMPARE\DEBUG\COMPARE.OBJ
D:\VISUAL STUDIO 2010\PROJECTS\COMPARE\COMPARE\DEBUG\STDAFX.OBJ
C:\WINDOWS\SYSTEM32\TZRES.DLL
D:\VISUAL STUDIO 2010\PROJECTS\COMPARE\DEBUG\COMPARE.EXE
D:\VISUAL STUDIO 2010\PROJECTS\COMPARE\DEBUG\COMPARE.PDB
C:\WINDOWS\GLOBALIZATION\SORTING\SORTDEFAULT.NLS
C:\PROGRAM FILES\MICROSOFT VISUAL STUDIO 10.0\VC\LIB\MSVCPRTD.LIB
C:\PROGRAM FILES\MICROSOFT VISUAL STUDIO 10.0\VC\LIB\MSVCRTD.LIB
C:\PROGRAM FILES\MICROSOFT VISUAL STUDIO 10.0\VC\LIB\OLDNAMES.LIB
