^C:\DOCUMENTS AND SETTINGS\FRANCOPH\MY DOCUMENTS\VISUAL STUDIO 2010\PROJECTS\COMPARE\COMPARE\DEBUG\COMPARE_MANIFEST.RC
/nologo /fo"Debug\Compare.exe.embed.manifest.res" Debug\Compare_manifest.rc /nologo /fo"Debug\Compare.exe.embed.manifest.res" C:\DOCUMENTS AND SETTINGS\FRANCOPH\MY DOCUMENTS\VISUAL STUDIO 2010\PROJECTS\COMPARE\COMPARE\DEBUG\COMPARE_MANIFEST.RC
^D:\VISUAL STUDIO 2010\PROJECTS\COMPARE\COMPARE\DEBUG\COMPARE_MANIFEST.RC
/nologo /fo"Debug\Compare.exe.embed.manifest.res" Debug\Compare_manifest.rc /nologo /fo"Debug\Compare.exe.embed.manifest.res" D:\VISUAL STUDIO 2010\PROJECTS\COMPARE\COMPARE\DEBUG\COMPARE_MANIFEST.RC
