^C:\DOCUMENTS AND SETTINGS\FRANCOPH\MY DOCUMENTS\VISUAL STUDIO 2010\PROJECTS\COMPARE\COMPARE\DEBUG\COMPARE_MANIFEST.RC
C:\DOCUMENTS AND SETTINGS\FRANCOPH\MY DOCUMENTS\VISUAL STUDIO 2010\PROJECTS\COMPARE\COMPARE\DEBUG\COMPARE.EXE.EMBED.MANIFEST
^D:\VISUAL STUDIO 2010\PROJECTS\COMPARE\COMPARE\DEBUG\COMPARE_MANIFEST.RC
D:\VISUAL STUDIO 2010\PROJECTS\COMPARE\COMPARE\DEBUG\COMPARE.EXE.EMBED.MANIFEST
